%YAML 1.1
%TAG !u! tag:unity3d.com,2011:
--- !u!1001 &3364680048109154750
PrefabInstance:
  m_ObjectHideFlags: 0
  serializedVersion: 2
  m_Modification:
    m_TransformParent: {fileID: 0}
    m_Modifications:
    - target: {fileID: 48908503426143520, guid: b78f1c5c60513d64686cd58420dea87d,
        type: 3}
      propertyPath: m_Name
      value: DroidRagdollNoHead
      objectReference: {fileID: 0}
    - target: {fileID: 48908503425844928, guid: b78f1c5c60513d64686cd58420dea87d,
        type: 3}
      propertyPath: m_LocalPosition.x
      value: 12.14
      objectReference: {fileID: 0}
    - target: {fileID: 48908503425844928, guid: b78f1c5c60513d64686cd58420dea87d,
        type: 3}
      propertyPath: m_LocalPosition.y
      value: -0.7
      objectReference: {fileID: 0}
    - target: {fileID: 48908503425844928, guid: b78f1c5c60513d64686cd58420dea87d,
        type: 3}
      propertyPath: m_LocalPosition.z
      value: -9.57
      objectReference: {fileID: 0}
    - target: {fileID: 48908503425844928, guid: b78f1c5c60513d64686cd58420dea87d,
        type: 3}
      propertyPath: m_LocalRotation.x
      value: 0
      objectReference: {fileID: 0}
    - target: {fileID: 48908503425844928, guid: b78f1c5c60513d64686cd58420dea87d,
        type: 3}
      propertyPath: m_LocalRotation.y
      value: 0
      objectReference: {fileID: 0}
    - target: {fileID: 48908503425844928, guid: b78f1c5c60513d64686cd58420dea87d,
        type: 3}
      propertyPath: m_LocalRotation.z
      value: 0
      objectReference: {fileID: 0}
    - target: {fileID: 48908503425844928, guid: b78f1c5c60513d64686cd58420dea87d,
        type: 3}
      propertyPath: m_LocalRotation.w
      value: 1
      objectReference: {fileID: 0}
    - target: {fileID: 48908503425844928, guid: b78f1c5c60513d64686cd58420dea87d,
        type: 3}
      propertyPath: m_RootOrder
      value: 0
      objectReference: {fileID: 0}
    - target: {fileID: 48908503425844928, guid: b78f1c5c60513d64686cd58420dea87d,
        type: 3}
      propertyPath: m_LocalEulerAnglesHint.x
      value: 0
      objectReference: {fileID: 0}
    - target: {fileID: 48908503425844928, guid: b78f1c5c60513d64686cd58420dea87d,
        type: 3}
      propertyPath: m_LocalEulerAnglesHint.y
      value: 0
      objectReference: {fileID: 0}
    - target: {fileID: 48908503425844928, guid: b78f1c5c60513d64686cd58420dea87d,
        type: 3}
      propertyPath: m_LocalEulerAnglesHint.z
      value: 0
      objectReference: {fileID: 0}
    - target: {fileID: 48908503426143500, guid: b78f1c5c60513d64686cd58420dea87d,
        type: 3}
      propertyPath: m_IsActive
      value: 0
      objectReference: {fileID: 0}
    - target: {fileID: 840929825, guid: b78f1c5c60513d64686cd58420dea87d, type: 3}
      propertyPath: m_ConnectedAnchor.x
      value: 0.28417873
      objectReference: {fileID: 0}
    - target: {fileID: 1997665164, guid: b78f1c5c60513d64686cd58420dea87d, type: 3}
      propertyPath: m_ConnectedAnchor.x
      value: -0.28417873
      objectReference: {fileID: 0}
    - target: {fileID: 1192458643, guid: b78f1c5c60513d64686cd58420dea87d, type: 3}
      propertyPath: m_ConnectedAnchor.y
      value: 0.8627956
      objectReference: {fileID: 0}
    - target: {fileID: 1192458643, guid: b78f1c5c60513d64686cd58420dea87d, type: 3}
      propertyPath: m_ConnectedAnchor.z
      value: 0.06340122
      objectReference: {fileID: 0}
    - target: {fileID: 1852416270, guid: b78f1c5c60513d64686cd58420dea87d, type: 3}
      propertyPath: m_ConnectedAnchor.x
      value: -0.69470054
      objectReference: {fileID: 0}
    - target: {fileID: 1852416270, guid: b78f1c5c60513d64686cd58420dea87d, type: 3}
      propertyPath: m_ConnectedAnchor.z
      value: 0.0699913
      objectReference: {fileID: 0}
    - target: {fileID: 2047464858, guid: b78f1c5c60513d64686cd58420dea87d, type: 3}
      propertyPath: m_ConnectedAnchor.x
      value: -0.00000016391277
      objectReference: {fileID: 0}
    - target: {fileID: 2047464858, guid: b78f1c5c60513d64686cd58420dea87d, type: 3}
      propertyPath: m_ConnectedAnchor.z
      value: -0.050581872
      objectReference: {fileID: 0}
    - target: {fileID: 507112248, guid: b78f1c5c60513d64686cd58420dea87d, type: 3}
      propertyPath: m_ConnectedAnchor.x
      value: -0.00000008195639
      objectReference: {fileID: 0}
    - target: {fileID: 507112248, guid: b78f1c5c60513d64686cd58420dea87d, type: 3}
      propertyPath: m_ConnectedAnchor.y
      value: -1.1267965
      objectReference: {fileID: 0}
    - target: {fileID: 507112248, guid: b78f1c5c60513d64686cd58420dea87d, type: 3}
      propertyPath: m_ConnectedAnchor.z
      value: -0.05058229
      objectReference: {fileID: 0}
    - target: {fileID: 1214005291, guid: b78f1c5c60513d64686cd58420dea87d, type: 3}
      propertyPath: m_ConnectedAnchor.y
      value: 0.45784277
      objectReference: {fileID: 0}
    - target: {fileID: 1214005291, guid: b78f1c5c60513d64686cd58420dea87d, type: 3}
      propertyPath: m_ConnectedAnchor.z
      value: 0.025390811
      objectReference: {fileID: 0}
    - target: {fileID: 1864636908, guid: b78f1c5c60513d64686cd58420dea87d, type: 3}
      propertyPath: m_ConnectedAnchor.y
      value: -0.45784295
      objectReference: {fileID: 0}
    - target: {fileID: 1864636908, guid: b78f1c5c60513d64686cd58420dea87d, type: 3}
      propertyPath: m_ConnectedAnchor.z
      value: 0.024404712
      objectReference: {fileID: 0}
    - target: {fileID: 406925873, guid: b78f1c5c60513d64686cd58420dea87d, type: 3}
      propertyPath: m_ConnectedAnchor.x
      value: -0.004089266
      objectReference: {fileID: 0}
    - target: {fileID: 406925873, guid: b78f1c5c60513d64686cd58420dea87d, type: 3}
      propertyPath: m_ConnectedAnchor.y
      value: 0.011481881
      objectReference: {fileID: 0}
    - target: {fileID: 406925873, guid: b78f1c5c60513d64686cd58420dea87d, type: 3}
      propertyPath: m_ConnectedAnchor.z
      value: 0.88353574
      objectReference: {fileID: 0}
    - target: {fileID: 325526141, guid: b78f1c5c60513d64686cd58420dea87d, type: 3}
      propertyPath: m_ConnectedAnchor.x
      value: -0.0040896386
      objectReference: {fileID: 0}
    - target: {fileID: 325526141, guid: b78f1c5c60513d64686cd58420dea87d, type: 3}
      propertyPath: m_ConnectedAnchor.y
      value: 0.01148206
      objectReference: {fileID: 0}
    - target: {fileID: 325526141, guid: b78f1c5c60513d64686cd58420dea87d, type: 3}
      propertyPath: m_ConnectedAnchor.z
      value: 0.8835371
      objectReference: {fileID: 0}
    m_RemovedComponents: []
  m_SourcePrefab: {fileID: 100100000, guid: b78f1c5c60513d64686cd58420dea87d, type: 3}
